{"deroulement":[
    {"key":"introduction","type":0,"name":"Introduction"},
    {"key":"hymne","type":1,"name":"Hymne"},
    {"key":null},
    {"key":"antienne_1","type":0, "name":"Antienne"},
    {"key":"psaume_1","type":3,"name":"Psaume"},
    {"key":"antienne_1","type":0, "name":"Antienne"},
    {"key":null},
    {"key":"antienne_2","type":0, "name":"Antienne"},
    {"key":"psaume_2","type":3,"name":"Psaume"},
    {"key":"antienne_2","type":0, "name":"Antienne"},
    {"key":null},
    {"key":"pericope", "type":3, "name":"Parole de Dieu"},
    {"key":"repons","type":0,"name":"Répons"},
    {"key":null},
    {"key":"antienne_symeon","type":0, "name":"Antienne"},
    {"key":"cantique_symeon","type":2},
    {"key":"antienne_symeon","type":0, "name":"Antienne"},
    {"key":null},
    {"key":"oraison","type":0,"name":"Oraison"},
    {"key":"benediction","type":0,"name":"Bénédiction"},
    {"key":"hymne_mariale","type":1,"name":"Hymne mariale"}
]}
