{"deroulement":[
    {"key":"introduction","type":0,"name":"Introduction"},
    {"key":null},
    {"key":"hymne","type":1,"name":"Hymne"},
    {"key":null},
    {"key":"antienne_1","type":0, "name":"Antienne"},
    {"key":"psaume_1","type":3,"name":"Psaume"},
    {"key":"antienne_1","type":0, "name":"Antienne"},
    {"key":null},
    {"key":"antienne_2","type":0, "name":"Antienne"},
    {"key":"psaume_2","type":3,"name":"Psaume"},
    {"key":"antienne_2","type":0, "name":"Antienne"},
    {"key":null},
    {"key":"antienne_3","type":0, "name":"Antienne"},
    {"key":"psaume_3","type":3,"name":"Psaume"},
    {"key":"antienne_3","type":0, "name":"Antienne"},
    {"key":null},
    {"key":"verset_psaume","type":0,"name":"Verset"},
    {"key":"lecture","type":2,"name":"Lecture"},
    {"key":"repons_lecture","type":0,"name":"Répons"},
    {"key":null},
    {"key":"texte_patristique","type":4,"key_title":"titre_patristique"},
    {"key":"repons_patristique","type":0,"name":"Répons"},
    {"key":null},
    {"key":"te_deum", "type":0, "name":"Te Deum"},
    {"key":null},
    {"key":"oraison","type":0,"name":"Oraison"}
]}
